	
	
---------------------------------------------------Server Information:---------------------------------------------------

DEV
m365-maritzdev2.cloudapp.net
User/PW for deployment: devuser/m365Password!

QA
m365-maritzqa.cloudapp.net
The user/password is:  m365qa/m365Password!

SIT (System Integration Testing)
m365-maritzsit.cloudapp.net
User/PW for deployment: m365sit/m365Password!

SIT2 (System Integration Testing for multi tenancy)
m365-maritzsit2.cloudapp.net
User/PW for deployment: m365sit2/m365Password!

---------------------------------------------------AWS DB INFO---------------------------------------------------
DEV:
Server: 54.165.64.138
Credentials: ccx162client/n^2GGSlxO4
ccx162admin/ K8d_#7#^v7

QA
Server: 54.174.222.136
Credentials: ccx162client/ Y!u04KcAd_
ccx162admin/ Z*2iy#_vO#


SIT (UAT)
Server: 54.88.246.231
Credentials: ccx162client/ j6@SVqD1_u
ccx162admin/ n#3HDj6#8!